…
    ## Joining with `by = join_by(series, baker)`

    ## character(0)

``` r
anti_join(bakers, bakes) |> 
  select(series, baker) |> 
  arrange(series, baker)
```

    ## Joining with `by = join_by(series, baker)`

    ## # A tibble: 25 × 2
    ##    series baker  
    ##     <dbl> <chr>  
    ##  1      9 Antony 
    ##  2      9 Briony 
    ##  3      9 Dan    
    ##  4      9 Imelda 
    ##  5      9 Jon    
    ##  6      9 Karen  
    ##  7      9 Kim-Joy
    ##  8      9 Luke   
    ##  9      9 Manon  
    ## 10      9 Rahul  
    ## # ℹ 15 more rows
…
``` r
gbb |> 
  filter(
  series >= 5,
  series <= 10,
  result %in% c('STAR BAKER', 'WINNER')
  ) |> 
  select(
    series, baker_name, episode, result
  ) |> 
  arrange(series, episode)
```

    ## # A tibble: 60 × 4
    ##    series baker_name        episode result    
    ##     <dbl> <chr>               <dbl> <chr>     
    ##  1      5 Nancy Birtwhistle       1 STAR BAKER
    ##  2      5 Richard Burr            2 STAR BAKER
    ##  3      5 Luis Troyano            3 STAR BAKER
    ##  4      5 Richard Burr            4 STAR BAKER
    ##  5      5 Kate Henry              5 STAR BAKER
    ##  6      5 Chetna Makan            6 STAR BAKER
    ##  7      5 Richard Burr            7 STAR BAKER
    ##  8      5 Richard Burr            8 STAR BAKER
    ##  9      5 Richard Burr            9 STAR BAKER
    ## 10      5 Nancy Birtwhistle      10 WINNER    
    ## # ℹ 50 more rows
…
